<svg width="32" height="32" viewBox="0 0 32 32" fill="none" xmlns="http://www.w3.org/2000/svg">
<path fill-rule="evenodd" clip-rule="evenodd" d="M16 1.32484C7.88177 1.32484 1.32484 7.88177 1.32484 16C1.32484 24.1182 7.88177 30.6752 16 30.6752C24.1175 30.6752 30.6752 24.0935 30.6752 16C30.6752 12.561 29.5052 9.41879 27.5322 6.93424L28.5697 6.11035C30.7241 8.82325 32 12.2543 32 16C32 24.8237 24.8506 32 16 32C7.15008 32 0 24.8499 0 16C0 7.15008 7.15008 0 16 0C19.6677 0 23.0702 1.24927 25.7552 3.32286L24.9454 4.37141C22.484 2.47048 19.3642 1.32484 16 1.32484Z" fill="#9E7E53"/>
<path fill-rule="evenodd" clip-rule="evenodd" d="M26.8281 3.80885C26.0893 3.80885 25.4905 4.40771 25.4905 5.14643C25.4905 5.88516 26.0893 6.48401 26.8281 6.48401C27.5668 6.48401 28.1657 5.88516 28.1657 5.14643C28.1657 4.40771 27.5668 3.80885 26.8281 3.80885ZM24.344 5.14643C24.344 3.77451 25.4562 2.66235 26.8281 2.66235C28.2 2.66235 29.3121 3.77451 29.3121 5.14643C29.3121 6.51835 28.2 7.63051 26.8281 7.63051C25.4562 7.63051 24.344 6.51835 24.344 5.14643Z" fill="#9E7E53"/>
<path d="M10.7006 13.3503C11.2866 13.3503 11.7707 12.8917 11.7707 12.3057C11.7707 11.7452 11.2866 11.2866 10.7006 11.2866C10.1146 11.2866 9.57959 11.7452 9.57959 12.3057C9.57959 12.8662 10.0891 13.3503 10.7006 13.3503Z" fill="#9E7E53"/>
<path d="M18.2676 15.1593C18.2676 15.1593 18.3185 16.0765 17.7326 16.6625C17.3249 17.0701 16.688 17.4013 15.6689 17.4013C14.6498 17.4013 13.9873 17.0701 13.6052 16.6625C12.9682 16.0765 13.0192 15.1593 13.0192 15.1593C13.0192 15.1593 12.9682 14.2676 13.5542 13.6561C13.9619 13.2484 14.5988 12.9172 15.6179 12.9172C16.637 12.9172 17.2994 13.2484 17.6816 13.6561C18.3185 14.293 18.2676 15.1593 18.2676 15.1593ZM16.1784 13.9873C15.9491 13.707 15.6434 13.7325 15.6434 13.7325C15.6434 13.7325 15.3377 13.707 15.1084 13.9873C14.93 14.1911 14.8281 14.5733 14.8281 15.1848C14.8281 15.7707 14.981 16.1784 15.1084 16.3822C15.3377 16.6625 15.6434 16.637 15.6434 16.637C15.6434 16.637 15.9491 16.6625 16.1784 16.3822C16.3568 16.1784 16.4842 15.7962 16.4842 15.1848C16.4587 14.5733 16.3568 14.1656 16.1784 13.9873Z" fill="#9E7E53"/>
<path d="M28.9681 17.0191V14.9809H27.3121V16.6624C25.8343 16.7134 25.9363 15.2102 25.9363 15.2102C25.9363 15.2102 25.9872 13.8344 27.3375 13.8344C27.3375 13.8344 27.8471 13.8089 28.1783 14.0127L28.5605 13.2229C27.8726 12.9681 26.8535 12.9936 26.8535 12.9936C25.7834 13.0191 25.121 13.3758 24.7133 13.758C24.1273 14.3439 24.1273 15.2357 24.1273 15.2357C24.1273 15.2357 24.0764 16.1529 24.6624 16.7389C25.07 17.1465 25.707 17.4777 26.7261 17.4777C26.777 17.4267 28.1019 17.5032 28.9681 17.0191Z" fill="#9E7E53"/>
<path d="M21.2231 13.7579C21.5288 13.7579 21.7581 13.8598 21.8855 14.0127C22.0893 14.242 22.0638 14.5987 22.0638 14.5987V17.2738H23.7199V14.777C23.7199 14.777 23.7454 14.0382 23.1848 13.5286C22.8027 13.1974 22.1657 12.9426 21.2231 12.9426C20.2804 12.9426 19.6434 13.2229 19.2613 13.5286C18.7008 14.0127 18.7263 14.777 18.7263 14.777V17.2738H20.3823V14.5987C20.3823 14.5987 20.3568 14.2165 20.5606 14.0127C20.6626 13.8598 20.8664 13.7579 21.2231 13.7579Z" fill="#9E7E53"/>
<path d="M8.10198 14.5988L7.94911 14.879L7.77077 15.2102C7.77077 15.2102 7.69433 15.3886 7.51599 15.3886C7.33765 15.3886 7.26121 15.2102 7.26121 15.2102L5.4523 11.4141H3.33765L5.96185 16.6625L6.03828 16.8153C6.03828 16.8153 6.21663 17.1211 6.42045 17.2739C6.59879 17.4268 6.82809 17.5032 7.13383 17.5032C7.43956 17.5032 7.66886 17.4268 7.8472 17.2739C8.05102 17.1211 8.22937 16.8153 8.22937 16.8153L8.3058 16.6625L8.73892 15.8217L9.17204 16.6625L9.24847 16.8153C9.24847 16.8153 9.42682 17.1211 9.63064 17.2739C9.80898 17.4268 10.0383 17.5032 10.344 17.5032C10.6497 17.5032 10.879 17.4268 11.0574 17.2739C11.2612 17.1211 11.4396 16.8153 11.4396 16.8153L11.516 16.6625L14.1402 11.4141H12.8663L10.981 15.2357C10.981 15.2357 10.93 15.4141 10.7262 15.4141C10.5478 15.4141 10.4714 15.2357 10.4714 15.2357L8.66249 11.4395H6.52236L8.10198 14.5988Z" fill="#9E7E53"/>
<path d="M8.25486 22.0891C8.35677 21.9871 8.45869 21.9107 8.58607 21.8598C8.71346 21.8088 8.84085 21.7833 8.96824 21.7833C9.09563 21.7833 9.22302 21.8088 9.3504 21.8598C9.47779 21.9107 9.57971 21.9871 9.68162 22.0891L9.809 22.2164L9.52875 22.4967L9.37588 22.3693C9.32493 22.3184 9.24849 22.2674 9.17206 22.2419C9.09563 22.191 9.04467 22.191 8.94276 22.191C8.86633 22.191 8.7899 22.2164 8.71346 22.2419C8.63703 22.2674 8.5606 22.3184 8.50964 22.3693C8.45869 22.4203 8.40773 22.4967 8.38225 22.5731C8.35677 22.6496 8.3313 22.726 8.3313 22.8024C8.3313 22.8789 8.35677 22.9553 8.38225 23.0317C8.40773 23.1082 8.45869 23.1846 8.50964 23.2356C8.63703 23.3629 8.76442 23.4139 8.94276 23.4139C9.0192 23.4139 9.09563 23.3884 9.17206 23.3629C9.24849 23.3375 9.29945 23.2865 9.37588 23.2356L9.52875 23.1082L9.809 23.3884L9.68162 23.5158C9.57971 23.6177 9.47779 23.6942 9.3504 23.7451C9.22302 23.7961 9.09563 23.8215 8.96824 23.8215C8.84085 23.8215 8.71346 23.7961 8.58607 23.7451C8.45869 23.6942 8.35677 23.6177 8.25486 23.5158C8.15295 23.4139 8.102 23.312 8.05104 23.1846C8.00009 23.0572 7.97461 22.9298 7.97461 22.8024C7.97461 22.675 8.00009 22.5477 8.05104 22.4203C8.07652 22.2929 8.15295 22.191 8.25486 22.0891Z" fill="#9E7E53"/>
<path d="M11.5159 23.0828L11.7962 23.363L11.6688 23.4904C11.5669 23.5923 11.4649 23.6688 11.3376 23.6942C11.2102 23.7452 11.0828 23.7707 10.9554 23.7707C10.828 23.7707 10.7006 23.7452 10.5732 23.6942C10.4458 23.6433 10.3439 23.5669 10.242 23.4904C10.1401 23.3885 10.0637 23.2866 10.0127 23.1592C9.96176 23.0318 9.93628 22.9044 9.93628 22.777C9.93628 22.6497 9.96176 22.5223 10.0127 22.3949C10.0637 22.2675 10.1401 22.1656 10.242 22.0637C10.3439 21.9618 10.4458 21.8853 10.5732 21.8344C10.7006 21.7834 10.828 21.7579 10.9554 21.7579C11.0828 21.7579 11.2102 21.7834 11.3376 21.8344C11.4649 21.8853 11.5669 21.9618 11.6688 22.0637L11.7962 22.1911L10.7006 23.2866C10.828 23.3376 10.9299 23.363 11.0573 23.3376C11.1847 23.3121 11.2866 23.2611 11.3885 23.1592L11.5159 23.0828ZM10.5223 22.3694C10.3949 22.4968 10.3439 22.6242 10.3439 22.8025C10.3439 22.9044 10.3694 22.9809 10.3949 23.0573C10.4458 23.0063 10.4968 22.9554 10.5477 22.9044C10.6242 22.828 10.7006 22.7516 10.777 22.6751C10.8535 22.5987 10.9299 22.5223 11.0063 22.4458C11.0828 22.3694 11.1337 22.3184 11.1847 22.2675C11.1083 22.1911 10.9809 22.1911 10.8535 22.1911C10.7261 22.2165 10.6242 22.2675 10.5223 22.3694Z" fill="#9E7E53"/>
<path d="M12 22.3948C12.051 22.2674 12.1274 22.1655 12.2038 22.0891C12.2803 22.0127 12.4077 21.9362 12.5096 21.8853C12.637 21.8343 12.7643 21.8088 12.8917 21.8088C13.0446 21.8088 13.172 21.8343 13.2739 21.8853C13.4013 21.9362 13.5032 22.0127 13.6051 22.0891C13.6815 22.1655 13.758 22.2929 13.8089 22.3948C13.8599 22.5222 13.8854 22.6496 13.8854 22.777V23.7706H13.5287V22.777C13.5287 22.7006 13.5032 22.6241 13.4777 22.5477C13.4522 22.4713 13.4013 22.4203 13.3503 22.3693C13.2994 22.3184 13.2229 22.2674 13.1465 22.242C13.0701 22.2165 12.9936 22.191 12.9172 22.191C12.8408 22.191 12.7643 22.2165 12.6879 22.242C12.6115 22.2674 12.5605 22.3184 12.4841 22.3693C12.4331 22.4203 12.3822 22.4967 12.3567 22.5477C12.3312 22.6241 12.3057 22.7006 12.3057 22.777V23.7706H11.9236V22.777C11.9236 22.6496 11.9491 22.5222 12 22.3948Z" fill="#9E7E53"/>
<path d="M14.3441 22.0891C14.446 21.9871 14.5479 21.9107 14.6753 21.8598C14.8027 21.8088 14.93 21.7833 15.0574 21.7833C15.1848 21.7833 15.3122 21.8088 15.4396 21.8598C15.567 21.9107 15.6689 21.9871 15.7708 22.0891L15.8982 22.2164L15.6179 22.4967L15.4651 22.3693C15.4141 22.3184 15.3377 22.2674 15.2613 22.2419C15.1848 22.191 15.1339 22.191 15.032 22.191C14.9555 22.191 14.8791 22.2164 14.8027 22.2419C14.7262 22.2674 14.6498 22.3184 14.5988 22.3693C14.5479 22.4203 14.4969 22.4967 14.4715 22.5731C14.446 22.6496 14.4205 22.726 14.4205 22.8024C14.4205 22.8789 14.446 22.9553 14.4715 23.0317C14.4969 23.1082 14.5479 23.1846 14.5988 23.2356C14.7262 23.3629 14.8536 23.4139 15.032 23.4139C15.1084 23.4139 15.1848 23.3884 15.2613 23.3629C15.3377 23.3375 15.3886 23.2865 15.4396 23.2356L15.5925 23.1082L15.8727 23.3884L15.7453 23.5158C15.6434 23.6177 15.5415 23.6942 15.4141 23.7451C15.2867 23.7961 15.1593 23.8215 15.032 23.8215C14.9046 23.8215 14.7772 23.7961 14.6498 23.7451C14.5224 23.6942 14.4205 23.6177 14.3186 23.5158C14.2167 23.4139 14.1402 23.312 14.1148 23.1846C14.0638 23.0572 14.0383 22.9298 14.0383 22.8024C14.0383 22.675 14.0638 22.5477 14.1148 22.4203C14.1657 22.2929 14.2422 22.191 14.3441 22.0891Z" fill="#9E7E53"/>
<path d="M16.0508 22.8025C16.0508 22.6751 16.0763 22.5477 16.1272 22.4203C16.1782 22.293 16.2546 22.191 16.331 22.1146C16.4329 22.0382 16.5349 21.9617 16.6368 21.9108C16.7642 21.8598 16.8915 21.8344 17.0189 21.8344C17.1463 21.8344 17.2992 21.8598 17.4011 21.9108C17.5285 21.9617 17.6304 22.0382 17.7323 22.1146C17.8342 22.2165 17.8852 22.3184 17.9616 22.4203C18.0126 22.5477 18.038 22.6751 18.038 22.8025C18.038 22.9299 18.0126 23.0573 17.9616 23.1847C17.9107 23.3121 17.8342 23.414 17.7323 23.5159C17.6304 23.6178 17.5285 23.6687 17.4011 23.7197C17.2737 23.7707 17.1463 23.7961 17.0189 23.7961C16.8915 23.7961 16.7642 23.7707 16.6368 23.7197C16.5094 23.6687 16.4075 23.5923 16.331 23.5159C16.2546 23.414 16.1782 23.3121 16.1272 23.1847C16.0763 23.0573 16.0508 22.9299 16.0508 22.8025ZM16.4329 22.8025C16.4329 22.8789 16.4584 22.9554 16.4839 23.0318C16.5094 23.1082 16.5603 23.1592 16.6113 23.2356C16.6622 23.2866 16.7387 23.3375 16.8151 23.363C16.8915 23.3885 16.968 23.414 17.0444 23.414C17.1208 23.414 17.1973 23.3885 17.2737 23.363C17.3501 23.3375 17.4011 23.2866 17.4775 23.2356C17.5285 23.1847 17.5794 23.1082 17.6049 23.0318C17.6304 22.9554 17.6559 22.8789 17.6559 22.8025C17.6559 22.7261 17.6304 22.6496 17.6049 22.5732C17.5794 22.4968 17.5285 22.4458 17.4775 22.3694C17.4266 22.3184 17.3501 22.2675 17.2737 22.242C17.1973 22.2165 17.1208 22.191 17.0444 22.191C16.968 22.191 16.8915 22.2165 16.8151 22.242C16.7387 22.2675 16.6877 22.3184 16.6113 22.3694C16.5603 22.4203 16.5094 22.4968 16.4839 22.5732C16.4584 22.6242 16.4329 22.7006 16.4329 22.8025Z" fill="#9E7E53"/>
<path d="M19.9491 21.7833V22.191H18.7517C18.7007 22.191 18.6498 22.2164 18.5988 22.2419C18.5478 22.2929 18.5478 22.3184 18.5478 22.3948C18.5478 22.4457 18.5733 22.4967 18.5988 22.5477C18.6498 22.5986 18.6752 22.5986 18.7517 22.5986H19.5415C19.6179 22.5986 19.6943 22.6241 19.7708 22.6496C19.8472 22.675 19.8982 22.726 19.9746 22.777C20.0256 22.8279 20.0765 22.9043 20.102 22.9553C20.1275 23.0317 20.1529 23.1082 20.1529 23.1846C20.1529 23.261 20.1275 23.3375 20.102 23.4139C20.0765 23.4903 20.0256 23.5413 19.9746 23.5922C19.9236 23.6432 19.8472 23.6942 19.7708 23.7196C19.6943 23.7451 19.6179 23.7706 19.5415 23.7706H18.3695V23.3629H19.567C19.6179 23.3629 19.6689 23.3375 19.7198 23.312C19.7708 23.2865 19.7708 23.2356 19.7708 23.1591C19.7708 23.1082 19.7453 23.0572 19.7198 23.0317C19.6689 23.0063 19.6434 22.9808 19.567 22.9808H18.7771C18.7007 22.9808 18.6243 22.9553 18.5478 22.9298C18.4714 22.9043 18.4205 22.8534 18.3695 22.8024C18.3185 22.7515 18.2676 22.675 18.2421 22.5986C18.2166 22.5222 18.1912 22.4457 18.1912 22.3693C18.1912 22.2929 18.2166 22.2164 18.2421 22.14C18.2676 22.0636 18.3185 22.0126 18.3695 21.9617C18.4205 21.9107 18.4969 21.8598 18.5478 21.8343C18.6243 21.8088 18.7007 21.7833 18.7771 21.7833H19.9491Z" fill="#9E7E53"/>
<path d="M22.2676 21.7833V22.777C22.2676 22.9043 22.2421 23.0317 22.1912 23.1591C22.1402 23.2865 22.0638 23.3884 21.9873 23.4649C21.8854 23.5668 21.7835 23.6177 21.6816 23.6687C21.5542 23.7196 21.4268 23.7451 21.2995 23.7451C21.1721 23.7451 21.0447 23.7196 20.9173 23.6687C20.7899 23.6177 20.688 23.5413 20.6116 23.4649C20.5351 23.3629 20.4587 23.261 20.4077 23.1591C20.3568 23.0317 20.3313 22.9043 20.3313 22.777V21.7833H20.7389V22.777C20.7389 22.8534 20.7644 22.9298 20.7899 23.0063C20.8154 23.0827 20.8663 23.1591 20.9173 23.2101C20.9682 23.261 21.0447 23.312 21.1211 23.3375C21.1975 23.3629 21.274 23.3884 21.3504 23.3884C21.4268 23.3884 21.5033 23.3629 21.5797 23.3375C21.6561 23.312 21.7071 23.261 21.7835 23.2101C21.8345 23.1591 21.8854 23.0827 21.9109 23.0063C21.9364 22.9298 21.9619 22.8534 21.9619 22.777V21.7833H22.2676Z" fill="#9E7E53"/>
<path d="M24.3822 20.9937V22.7771C24.3822 22.9045 24.3567 23.0319 24.3058 23.1593C24.2548 23.2866 24.1784 23.3886 24.0765 23.465C24 23.5669 23.8726 23.6179 23.7707 23.6688C23.6433 23.7198 23.516 23.7452 23.3886 23.7452C23.2612 23.7452 23.1338 23.7198 23.0064 23.6688C22.879 23.6179 22.7771 23.5414 22.7007 23.465C22.5988 23.3631 22.5478 23.2612 22.4968 23.1593C22.4459 23.0319 22.4204 22.9045 22.4204 22.7771C22.4204 22.6242 22.4459 22.4968 22.4968 22.3949C22.5478 22.2675 22.6242 22.1656 22.7007 22.0892C22.8026 22.0128 22.9045 21.9363 23.0064 21.8854C23.1338 21.8344 23.2612 21.8089 23.3886 21.8089H24V21.0191H24.3822V20.9937ZM23.3886 23.3886C23.465 23.3886 23.5414 23.3631 23.6179 23.3376C23.6943 23.3121 23.7453 23.2612 23.8217 23.2102C23.8726 23.1593 23.9236 23.0828 23.9491 23.0064C23.9746 22.93 24 22.8535 24 22.7771V22.1911H23.3886C23.3121 22.1911 23.2357 22.2166 23.1593 22.2421C23.0828 22.2675 23.0319 22.3185 22.9554 22.3694C22.9045 22.4204 22.8535 22.4968 22.8281 22.5733C22.8026 22.6497 22.7771 22.7261 22.7771 22.8026C22.7771 22.879 22.8026 22.9554 22.8281 23.0319C22.8535 23.1083 22.9045 23.1847 22.9554 23.2357C23.0064 23.2866 23.0828 23.3376 23.1593 23.3631C23.2357 23.3631 23.3121 23.3886 23.3886 23.3886Z" fill="#9E7E53"/>
</svg>
